<svg width="14" height="18" viewBox="0 0 14 18" fill="none" xmlns="http://www.w3.org/2000/svg">
<path fill-rule="evenodd" clip-rule="evenodd" d="M10.2036 1.53214V0H11.6621V1.53214H14V7.03845H11.3628H10.75H0V1.53214H2.33691V0H3.79443V1.53214H6.27051V0H7.72852V1.53214H10.2036ZM0 8.50778H7.91357H14V18H8.23926H0V8.50778Z" transform="translate(0.000488281 0.00050354)" fill="#171847"/>
<mask id="mask0" mask-type="alpha" maskUnits="userSpaceOnUse" x="0" y="0" width="15" height="19">
<path fill-rule="evenodd" clip-rule="evenodd" d="M10.2036 1.53214V0H11.6621V1.53214H14V7.03845H11.3628H10.75H0V1.53214H2.33691V0H3.79443V1.53214H6.27051V0H7.72852V1.53214H10.2036ZM0 8.50778H7.91357H14V18H8.23926H0V8.50778Z" transform="translate(0.000488281 0.00050354)" fill="white"/>
</mask>
<g mask="url(#mask0)">
<path fill-rule="evenodd" clip-rule="evenodd" d="M0 0H24V24H0V0Z" transform="translate(-5 -3)" fill="#1D428A"/>
</g>
</svg>
