<svg width="182" height="40" viewBox="0 0 182 40" fill="none" xmlns="http://www.w3.org/2000/svg">
<path fill-rule="evenodd" clip-rule="evenodd" d="M0 15.375V0H10.226V3.84351H5.14661V5.86425H9.97988V9.708H5.14661V15.375H0Z" transform="translate(46.0171 17.425)" fill="white"/>
<path fill-rule="evenodd" clip-rule="evenodd" d="M7.33514 11.9885V4.52942C7.17869 4.25884 6.75371 4.05621 6.23922 4.05621C5.70267 4.05621 5.30001 4.25884 5.14355 4.52942V11.9885C5.30001 12.2588 5.72499 12.4392 6.23922 12.4392C6.75371 12.4392 7.15613 12.2588 7.33514 11.9885ZM2.10208 15.5488C1.05104 14.9404 0.357785 14.2194 0 13.4081V3.08732C0.357785 2.27608 1.05104 1.55503 2.10208 0.923922C3.1308 0.315553 4.51731 0 6.23929 0C7.96127 0 9.34778 0.315553 10.3988 0.923922C11.4275 1.55503 12.1208 2.27608 12.4788 3.08732V13.4081C12.1208 14.2194 11.4275 14.9404 10.3988 15.5488C9.34778 16.1796 7.96127 16.4954 6.23929 16.4954C4.51731 16.4954 3.1308 16.1796 2.10208 15.5488Z" transform="translate(56.9414 17.0386)" fill="white"/>
<path fill-rule="evenodd" clip-rule="evenodd" d="M2.03513 15.6615C1.0736 15.0981 0.380348 14.4899 0 13.7911V10.7715H4.89766V12.1237C5.00948 12.3715 5.47909 12.5744 5.99333 12.5744C6.53013 12.5744 6.9328 12.3715 7.11156 12.1237V10.7038C6.95511 10.4335 6.61964 10.3433 5.43422 10.073C2.05745 9.44184 0.62631 8.54066 0 7.43635V2.70431C0.380348 2.0055 1.0736 1.39713 2.03513 0.833729C2.99667 0.270331 4.31623 0 5.99333 0C7.693 0 9.01256 0.270331 9.97409 0.811243C10.9356 1.37464 11.6068 2.0055 12.0315 2.70431V5.6787H7.11156V4.39425C6.99974 4.14641 6.53013 3.92105 5.99333 3.92105C5.47909 3.92105 5.05412 4.14641 4.89766 4.39425V5.63348C5.05412 5.88132 5.41215 5.99425 6.64196 6.28707C9.95178 6.98563 11.4055 7.8421 12.0315 8.92367V13.7911C11.6291 14.4899 10.9582 15.0981 9.99641 15.6615C9.03487 16.2249 7.693 16.4954 5.99333 16.4954C4.31623 16.4954 2.99667 16.2249 2.03513 15.6615Z" transform="translate(70.4038 17.0386)" fill="white"/>
<path fill-rule="evenodd" clip-rule="evenodd" d="M3.26494 15.7741V3.94328H0V0H11.6735V3.94328H8.386V15.7741H3.26494Z" transform="translate(83.1514 17.3993)" fill="white"/>
<path fill-rule="evenodd" clip-rule="evenodd" d="M0 15.7741V0H10.533V3.94328H5.14362V5.88132H10.2201V9.6672H5.14362V11.8306H10.6227V15.7741H0Z" transform="translate(95.6519 17.3993)" fill="white"/>
<path fill-rule="evenodd" clip-rule="evenodd" d="M6.48543 6.80552C6.99967 6.80552 7.33539 6.64762 7.53647 6.30983V4.34931C7.37977 4.03376 7.02199 3.87585 6.48543 3.87585H5.14355V6.80552H6.48543ZM0 0H7.91639C9.9069 0 11.5617 0.923922 12.4337 2.38876V7.93229C12.1654 8.49569 11.6286 9.05908 10.8461 9.59975L12.5011 12.7995V15.7741H8.09541L5.81431 10.5689H5.14338V15.7741H0V0Z" transform="translate(107.214 17.3992)" fill="white"/>
<path fill-rule="evenodd" clip-rule="evenodd" d="M0 15.7741H5.14338V0H0V15.7741Z" transform="translate(120.654 17.3991)" fill="white"/>
<path fill-rule="evenodd" clip-rule="evenodd" d="M5.56836 9.01386H7.51399L6.79842 4.68732H6.35087L5.56836 9.01386ZM10.4663 0L13.4629 12.7995V15.7744H8.63221L8.16285 12.9574H4.85278L4.33855 15.7744H0V12.7995L2.99691 0H10.4663Z" transform="translate(126.692 17.3992)" fill="white"/>
<path fill-rule="evenodd" clip-rule="evenodd" d="M0 15.7741V0H5.32239L8.05078 6.44472H8.49783V0H13.306V15.7741H8.0059L5.27751 9.30668H4.83022V15.7741H0Z" transform="translate(141.005 17.3993)" fill="white"/>
<path fill-rule="evenodd" clip-rule="evenodd" d="M7.33514 11.9885V4.52942C7.17844 4.25884 6.75346 4.05621 6.23922 4.05621C5.70267 4.05621 5.30001 4.25884 5.14355 4.52942V11.9885C5.30001 12.2588 5.72499 12.4392 6.23922 12.4392C6.75346 12.4392 7.15613 12.2588 7.33514 11.9885ZM2.10233 15.5488C1.05104 14.9404 0.357785 14.2194 0 13.4081V3.08732C0.357785 2.27608 1.05104 1.55503 2.10233 0.923922C3.1308 0.315553 4.51731 0 6.23929 0C7.96127 0 9.34778 0.315553 10.3988 0.923922C11.4278 1.55503 12.121 2.27608 12.4786 3.08732V13.4081C12.121 14.2194 11.4278 14.9404 10.3988 15.5488C9.34778 16.1796 7.96127 16.4954 6.23929 16.4954C4.51731 16.4954 3.1308 16.1796 2.10233 15.5488Z" transform="translate(155.362 17.0386)" fill="white"/>
<path fill-rule="evenodd" clip-rule="evenodd" d="M2.03513 15.6615C1.07335 15.0981 0.3801 14.4899 0 13.7911V10.7715H4.89766V12.1237C5.00924 12.3715 5.47909 12.5744 5.99333 12.5744C6.53013 12.5744 6.93255 12.3715 7.11156 12.1237V10.7038C6.95511 10.4335 6.61939 10.3433 5.43422 10.073C2.05745 9.44184 0.626062 8.54066 0 7.43635V2.70431C0.3801 2.0055 1.07335 1.39713 2.03513 0.833729C2.99667 0.270331 4.31598 0 5.99333 0C7.693 0 9.01256 0.270331 9.97409 0.811243C10.9356 1.37464 11.6066 2.0055 12.0313 2.70431V5.6787H7.11156V4.39425C6.99949 4.14641 6.53013 3.92105 5.99333 3.92105C5.47909 3.92105 5.05412 4.14641 4.89766 4.39425V5.63348C5.05412 5.88132 5.4119 5.99425 6.64196 6.28707C9.95178 6.98563 11.4052 7.8421 12.0313 8.92367V13.7911C11.6289 14.4899 10.9579 15.0981 9.99641 15.6615C9.03463 16.2249 7.693 16.4954 5.99333 16.4954C4.31598 16.4954 2.99667 16.2249 2.03513 15.6615Z" transform="translate(168.825 17.0386)" fill="white"/>
<path fill-rule="evenodd" clip-rule="evenodd" d="M17.348 0L15.781 5.05359L13.2527 13.2072L5.07073 14.2196L0 14.847L4.1025 17.3429L10.7216 21.3699L8.19335 29.5235L6.62634 34.5774L10.7288 31.0661L17.348 25.4011L23.9671 29.4281L28.0696 31.924L26.5026 27.2585L23.9743 19.7302L30.5935 14.0652L34.696 10.5541L29.625 11.1815L21.4433 12.1939L18.915 4.66583L17.348 0ZM17.3481 5.37262L20.2463 14.0022L29.6251 12.8419L22.0374 19.3356L24.9357 27.9652L17.3481 23.3489L9.76019 29.8426L12.6587 20.4959L5.0708 15.8798L14.4498 14.7195L17.3481 5.37262Z" transform="translate(2.7373 2.51978)" fill="white"/>
<path fill-rule="evenodd" clip-rule="evenodd" d="M16.9666 13.9628L19.8649 22.5924L12.2773 17.976L4.68939 24.4699L7.58787 15.1233L0 10.5069L9.37902 9.34665L12.2773 0L15.1755 8.62935L24.5543 7.46908L16.9666 13.9628Z" transform="translate(7.80811 7.89258)" fill="#F3364B"/>
<path fill-rule="evenodd" clip-rule="evenodd" d="M40.1275 13.0309L39.465 11.0578C39.3229 10.6351 38.9058 10.371 38.4662 10.4255L32.3544 11.1815L25.9683 11.9718L23.9949 6.09569L22.1623 0.63935C22.0339 0.257339 21.6781 0 21.2777 0H19.0375C18.6289 0 18.2676 0.267583 18.1459 0.660587L16.1598 7.06508L14.1864 13.4294L7.80037 14.2196L1.53182 14.9951C1.16759 15.0401 0.863358 15.2957 0.754014 15.6487L0.0426597 17.9433C-0.0857759 18.357 0.0830747 18.8055 0.451273 19.0296L5.37918 22.0277L10.5456 25.171L8.57222 31.535L6.669 37.6734C6.54056 38.0872 6.70941 38.5357 7.07786 38.7598L8.7805 39.7959C9.12415 40.005 9.56202 39.9693 9.86798 39.7072L14.9109 35.3914L20.0774 30.9699L25.2441 34.1132L30.2238 37.1428C30.5674 37.3519 31.0053 37.3162 31.3113 37.0543L33.2212 35.4198C33.5128 35.17 33.6239 34.7663 33.5011 34.4007L31.5825 28.6883L29.6091 22.8122L34.7758 18.3905L39.8475 14.0502C40.1391 13.8004 40.2502 13.3964 40.1275 13.0309ZM26.7038 22.2203L29.2321 29.7486L30.7991 34.4145L26.6969 31.9185L20.0775 27.8915L13.4583 33.5562L9.35583 37.0673L10.9228 32.014L13.4511 23.8603L6.83199 19.8331L2.72949 17.3374L7.80047 16.71L15.9822 15.6977L18.5105 7.54401L20.0775 2.49042L21.6445 7.156L24.1728 14.6843L32.3545 13.6719L37.4257 13.0446L33.3232 16.5554L26.7038 22.2203Z" transform="translate(0.0078125 0.0294189)" fill="#1C4289"/>
</svg>
